module github.com/sixwaaaay/shauser

go 1.21

toolchain go1.21.4

require (
	codeberg.org/sixwaaaay/sharing-pb v0.1.2
	github.com/golang-jwt/jwt/v5 v5.2.0
	github.com/google/wire v0.5.0
	github.com/labstack/echo/v4 v4.11.4
	github.com/labstack/gommon v0.4.2
	github.com/redis/go-redis/v9 v9.3.1
	github.com/sixwaaaay/cq v0.2.1
	github.com/sixwaaaay/must v0.1.0
	github.com/sixwaaaay/token v0.1.1
	github.com/sixwaaaay/token/rpc v0.0.0-20231226141924-56a2e6246033
	github.com/sony/sonyflake v1.2.0
	github.com/spf13/viper v1.18.1
	github.com/stretchr/testify v1.8.4
	go.opentelemetry.io/contrib/instrumentation/github.com/labstack/echo/otelecho v0.46.1
	go.opentelemetry.io/contrib/instrumentation/google.golang.org/grpc/otelgrpc v0.46.1
	go.opentelemetry.io/contrib/instrumentation/runtime v0.46.1
	go.opentelemetry.io/otel v1.21.0
	go.opentelemetry.io/otel/exporters/otlp/otlpmetric/otlpmetricgrpc v0.44.0
	go.opentelemetry.io/otel/exporters/otlp/otlptrace/otlptracegrpc v1.21.0
	go.opentelemetry.io/otel/sdk v1.21.0
	go.opentelemetry.io/otel/sdk/metric v1.21.0
	go.uber.org/zap v1.26.0
	golang.org/x/crypto v0.17.0
	golang.org/x/oauth2 v0.15.0
	google.golang.org/grpc v1.60.1
	google.golang.org/protobuf v1.31.0
	gorm.io/driver/mysql v1.5.2
	gorm.io/gorm v1.25.5
	gorm.io/plugin/dbresolver v1.5.0
)

require (
	github.com/cenkalti/backoff/v4 v4.2.1 // indirect
	github.com/cespare/xxhash/v2 v2.2.0 // indirect
	github.com/davecgh/go-spew v1.1.2-0.20180830191138-d8f796af33cc // indirect
	github.com/dgryski/go-rendezvous v0.0.0-20200823014737-9f7001d12a5f // indirect
	github.com/fsnotify/fsnotify v1.7.0 // indirect
	github.com/go-logr/logr v1.3.0 // indirect
	github.com/go-logr/stdr v1.2.2 // indirect
	github.com/go-sql-driver/mysql v1.7.0 // indirect
	github.com/golang-jwt/jwt v3.2.2+incompatible // indirect
	github.com/golang/protobuf v1.5.3 // indirect
	github.com/grpc-ecosystem/grpc-gateway/v2 v2.16.0 // indirect
	github.com/hashicorp/hcl v1.0.0 // indirect
	github.com/jinzhu/inflection v1.0.0 // indirect
	github.com/jinzhu/now v1.1.5 // indirect
	github.com/magiconair/properties v1.8.7 // indirect
	github.com/mattn/go-colorable v0.1.13 // indirect
	github.com/mattn/go-isatty v0.0.20 // indirect
	github.com/mitchellh/mapstructure v1.5.0 // indirect
	github.com/pelletier/go-toml/v2 v2.1.0 // indirect
	github.com/pmezard/go-difflib v1.0.1-0.20181226105442-5d4384ee4fb2 // indirect
	github.com/sagikazarmark/locafero v0.4.0 // indirect
	github.com/sagikazarmark/slog-shim v0.1.0 // indirect
	github.com/sourcegraph/conc v0.3.0 // indirect
	github.com/spf13/afero v1.11.0 // indirect
	github.com/spf13/cast v1.6.0 // indirect
	github.com/spf13/pflag v1.0.5 // indirect
	github.com/subosito/gotenv v1.6.0 // indirect
	github.com/valyala/bytebufferpool v1.0.0 // indirect
	github.com/valyala/fasttemplate v1.2.2 // indirect
	go.opentelemetry.io/otel/exporters/otlp/otlptrace v1.21.0 // indirect
	go.opentelemetry.io/otel/metric v1.21.0 // indirect
	go.opentelemetry.io/otel/trace v1.21.0 // indirect
	go.opentelemetry.io/proto/otlp v1.0.0 // indirect
	go.uber.org/multierr v1.10.0 // indirect
	golang.org/x/exp v0.0.0-20230905200255-921286631fa9 // indirect
	golang.org/x/net v0.19.0 // indirect
	golang.org/x/sys v0.15.0 // indirect
	golang.org/x/text v0.14.0 // indirect
	golang.org/x/time v0.5.0 // indirect
	google.golang.org/appengine v1.6.8 // indirect
	google.golang.org/genproto/googleapis/api v0.0.0-20231106174013-bbf56f31fb17 // indirect
	google.golang.org/genproto/googleapis/rpc v0.0.0-20231120223509-83a465c0220f // indirect
	gopkg.in/ini.v1 v1.67.0 // indirect
	gopkg.in/yaml.v3 v3.0.1 // indirect
)
